Systematic Literature Review for Urbanism
…
Text mining is a powerful tool for extracting insights from unstructured text data. In this section, we will demonstrate how to perform text mining on the full text of the papers extracted from PDFs. We start by splitting the text into words, a process called tokenisation, and then proceed with word context, word embeddings and topic modelling.

words <- unnest_tokens(text_df, word, text) |>
  filter(is.na(readr::parse_number(word))) |>     # Remove numbers
  anti_join(tidytext::stop_words, by = "word") |>           # Remove English stop words
  # anti_join(custom_stop_words, by = "word") |>  # Remove custom stop words
  dplyr::filter(nchar(word) > 3)                  # remove words of max. 3 characters

words_count <- words |> 
  count(word) |> 
  arrange(desc(n))

words_count

# A tibble: 18,158 × 2
   word              n
   <chr>         <int>
 1 income         8795
 2 segregation    6941
 3 economic       2010
 4 housing        1907
 5 urban          1822
 6 neighborhood   1715
 7 inequality     1701
 8 neighborhoods  1639
 9 data           1563
10 spatial        1469
# ℹ 18,148 more rows
…
Word embeddings are dense vector representations of words that capture semantic relationships between words. We use word embeddings to find words that are similar to a word of interest such as “income”? As a rule of thumb, the dataset should have above 1 million tokens (words in this case) for reliable results. The following code chunks demonstrate the steps to calculate word embeddings.

tidy_data <- data %>% 
  select(id, text) %>% 
  unnest_tokens(word, text) %>% 
  add_count(word) %>% 
  filter(n >= 50) %>% 
  select(-n)

nested_words <- tidy_data %>% 
  nest(words = c(word))

nested_words

# A tibble: 56 × 2
   id                  words                
   <chr>               <list>               
 1 WOS:000541588500001 <tibble [10,472 × 1]>
 2 WOS:000290005800002 <tibble [20,628 × 1]>
 3 WOS:000440443600007 <tibble [7,949 × 1]> 
 4 WOS:000245813700004 <tibble [6,082 × 1]> 
 5 WOS:000482232300001 <tibble [9,776 × 1]> 
 6 WOS:000240021800011 <tibble [6,811 × 1]> 
 7 WOS:000296301100001 <tibble [8,219 × 1]> 
 8 WOS:000246089600012 <tibble [10,975 × 1]>
 9 WOS:000971949200003 <tibble [19,324 × 1]>
10 WOS:000518403700010 <tibble [6,187 × 1]> 
# ℹ 46 more rows
…
The following code calculates the pointwise mutual information (PMI) between words and windows.

plan(multisession)  # for parallel processing

tidy_pmi <- nested_words %>% 
  mutate(words = future_map(words, slide_windows, 4L)) %>% 
  unnest(words) %>% 
  unite(window_id, id, window_id) %>% 
  pairwise_pmi(word, window_id)

tidy_pmi

# A tibble: 508,274 × 3
   item1       item2            pmi
   <chr>       <chr>          <dbl>
 1 economic    international  0.641
 2 review      international  2.31 
 3 vol         international  1.63 
 4 4           international -1.36 
 5 doi         international  2.51 
 6 the         international -0.496
 7 of          international  0.517
 8 income      international -1.45 
 9 segregation international -0.471
10 by          international -2.00 
# ℹ 508,264 more rows

The following code calculates the word vectors using the singular value decomposition (SVD) method.

tidy_word_vectors <- tidy_pmi %>% 
  widely_svd(
    item1, item2, pmi,
    nv = 100, maxit = 1000
  )

tidy_word_vectors

# A tibble: 162,600 × 3
   item1       dimension   value
   <chr>           <int>   <dbl>
 1 economic            1 -0.0563
 2 review              1  0.0454
 3 vol                 1  0.0435
 4 4                   1  0.0136
 5 doi                 1  0.0452
 6 the                 1 -0.0650
 7 of                  1 -0.0729
 8 income              1 -0.134 
 9 segregation         1 -0.121 
10 by                  1 -0.0655
# ℹ 162,590 more rows
…
        matrix(res, ncol = 1, dimnames = list(x = names(res)))
      },
      sort = TRUE
    )(item1, dimension, value) %>% 
    select(-item2)
}

tidy_word_vectors %>% 
  nearest_neighbors("income")

# A tibble: 1,626 × 2
   item1       value
   <chr>       <dbl>
 1 income      1    
 2 incomes     0.373
 3 come        0.311
 4 segregation 0.289
 5 parent      0.212
 6 watson      0.204
 7 poorest     0.194
 8 lowest      0.191
 9 cumulative  0.189
10 hood        0.189
# ℹ 1,616 more rows
…
